DirectEffects: Estimating controlled direct effects
…
The paper’s main argument is that the advent of the capital-intensive agricultural practice of the plow favored men over women participating in agriculture, which have affected gender inequality in modern societies. They also suggest that the effect of the plow agriculture flows through income. Thus, in this example,

\(Y_i\) is the share of political positions held by women in 2000 (women_politics)

\(A_i\) is the relative proportion of ethnic groups that traditionally used the plow within a country (plow)

\(M_i\) is the log GDP per capita in 2000 (ln_income)

\(X_i\) is the pre-treatment characteristics of the country, which are mostly geographic. (tropical_climate, agricultural_suitability, large_animals, political_hierarchies, economic_complexity, and rugged)

where \(i\) indexes countries.

tbl_df(ploughs)

## # A tibble: 234 × 57
##    isocode flfp2000 female_ownership women_politics        plow
## *    <chr>    <dbl>            <dbl>          <int>       <dbl>
## 1      ABW       NA               NA             NA 0.000000000
## 2      AFG     31.3              2.8             NA 0.999969482
## 3      AGO     75.2             56.6             16 0.000000000
## 4      AIA       NA               NA             NA 0.000000000
## 5      ALB     50.2             10.8              5 1.000000000
## 6      AND       NA               NA              7 1.000000000
## 7      ANT     54.8               NA             NA 0.000000000
## 8      ARE     34.2               NA              0 0.999999762
## 9      ARG     45.6             38.0             28 0.007799393
## 10     ARM     57.2             31.8              3 0.977451026
## # ... with 224 more rows, and 52 more variables:
## #   agricultural_suitability <dbl>, tropical_climate <dbl>,
## #   large_animals <dbl>, political_hierarchies <dbl>,
## #   economic_complexity <dbl>, ln_income <dbl>, ln_income_squared <dbl>,
## #   year_obs <dbl>, plow_aborigenal <dbl>, hunting <dbl>, husbandry <dbl>,
## #   terrain_slope <dbl>, soil_depth <dbl>, avg_temperature <dbl>,
## #   avg_precipitation <dbl>, country <chr>, communist_dummy <int>,
## #   continent <chr>, rugged <dbl>, european_descent <dbl>, cath00 <dbl>,
## #   prot00 <dbl>, othchrist00 <dbl>, muslim00 <dbl>, hindu00 <dbl>,
…
