Difference-in-differences Designs • DirectEffects
…
library(DirectEffects)
data(transphobia)
transphobia

## # A tibble: 501 × 19
##    treated nondiscrim_law_t3 therm_trans_t2 therm_obama_t1 gender_norm_moral_t1
##      <dbl>             <dbl>          <dbl>          <dbl>                <dbl>
##  1       0               1                0             71                   -2
##  2       1               3                2            100                    0
##  3       0              NA               NA             NA                   NA
##  4       1               0                1            100                    0
##  5       0               1                1              0                   -1
##  6       0               1                1             74                    0
##  7       1               2.5             NA            100                    1
##  8       1              NA               NA            100                    0
##  9       1              NA               NA             NA                   NA
## 10       1              NA               NA             NA                   NA
## # ℹ 491 more rows
## # ℹ 14 more variables: nondiscrim_law_t0 <dbl>, therm_trans_t0 <dbl>,
## #   therm_obama_t0 <dbl>, gender_norm_moral_t0 <dbl>, ideology_t0 <dbl>,
## #   religious_t0 <dbl>, exposure_trans_t0 <dbl>, pid_t0 <dbl>,
## #   vf_democrat <dbl>, vf_female <dbl>, vf_hispanic <dbl>, vf_black <dbl>,
## #   vf_age <dbl>, nondiscrim_law_diff <dbl>
…
